…
### 2.1. Calculate total steps per day.

I will use "dplyr" for this first task.


```r
library(ggplot2)
daily_steps <- activity %>%
        group_by(date) %>%
        summarise(total_steps = sum(steps))
daily_steps
```

```
## # A tibble: 61 × 2
##    date       total_steps
##    <chr>            <int>
##  1 2012-10-01          NA
##  2 2012-10-02         126
##  3 2012-10-03       11352
##  4 2012-10-04       12116
##  5 2012-10-05       13294
##  6 2012-10-06       15420
##  7 2012-10-07       11015
##  8 2012-10-08          NA
##  9 2012-10-09       12811
## 10 2012-10-10        9900
## # … with 51 more rows
```
…
<<<<<<< HEAD
I have chosen to use mean values for each interval, given these have been previously calculated and exist in the `by_interval' tibble. 
=======
I have chosen to use mean values for each interval, given these have been previously calculated and exist in the `by_interval` tibble. 
>>>>>>> dffa94b (Ready for assessment.)


```r
by_interval
```

```
## # A tibble: 288 × 2
##    interval mean_steps
##       <int>      <dbl>
##  1        0     1.72  
##  2        5     0.340 
##  3       10     0.132 
##  4       15     0.151 
##  5       20     0.0755
##  6       25     2.09  
##  7       30     0.528 
##  8       35     0.868 
##  9       40     0     
## 10       45     1.47  
## # … with 278 more rows
```
…
```r
activity2 <- as_tibble(temp)
activity2$steps <- as.numeric(activity2$steps)
for(i in 1:nrow(activity2)) {
        if(is.na(activity2[i, "steps"])) {
                activity2[i, "steps"] <- as.numeric(by_interval[which(by_interval$interval == as.integer(activity2[i, "interval"])),2])
        } 
}
activity2
```

```
## # A tibble: 17,568 × 3
##     steps date       interval
##     <dbl> <chr>         <int>
##  1 1.72   2012-10-01        0
##  2 0.340  2012-10-01        5
##  3 0.132  2012-10-01       10
##  4 0.151  2012-10-01       15
##  5 0.0755 2012-10-01       20
##  6 2.09   2012-10-01       25
##  7 0.528  2012-10-01       30
##  8 0.868  2012-10-01       35
##  9 0      2012-10-01       40
## 10 1.47   2012-10-01       45
## # … with 17,558 more rows
```

### 4.4. Making a histogram of total steps, and reporting mean and median steps for each data set.

Firstly, create a table showing the total steps for the `activity2` data set.


```r
daily_steps2 <- activity2 %>%
        group_by(date) %>%
        summarise(total_steps2 = sum(steps))
daily_steps2
```

```
## # A tibble: 61 × 2
##    date       total_steps2
##    <chr>             <dbl>
##  1 2012-10-01       10766.
##  2 2012-10-02         126 
##  3 2012-10-03       11352 
##  4 2012-10-04       12116 
##  5 2012-10-05       13294 
##  6 2012-10-06       15420 
##  7 2012-10-07       11015 
##  8 2012-10-08       10766.
##  9 2012-10-09       12811 
## 10 2012-10-10        9900 
## # … with 51 more rows
```
…
```r
activity2 <- as_tibble(temp)
activity2$steps <- as.numeric(activity2$steps)
for(i in 1:nrow(activity2)) {
        if(is.na(activity2[i, "steps"])) {
                activity2[i, "steps"] <- as.numeric(by_interval[which(by_interval$interval == as.integer(activity2[i, "interval"])),2])
        } 
}
activity2
```

```
## # A tibble: 17,568 × 3
##     steps date       interval
##     <dbl> <chr>         <int>
##  1 1.72   2012-10-01        0
##  2 0.340  2012-10-01        5
##  3 0.132  2012-10-01       10
##  4 0.151  2012-10-01       15
##  5 0.0755 2012-10-01       20
##  6 2.09   2012-10-01       25
##  7 0.528  2012-10-01       30
##  8 0.868  2012-10-01       35
##  9 0      2012-10-01       40
## 10 1.47   2012-10-01       45
## # … with 17,558 more rows
```

### 4.4. Making a histogram of total steps, and reporting mean and median steps for each data set.

Firstly, create a table showing the total steps for the `activity2` data set.


```r
daily_steps2 <- activity2 %>%
        group_by(date) %>%
        summarise(total_steps2 = sum(steps))
daily_steps2
```

```
## # A tibble: 61 × 2
##    date       total_steps2
##    <chr>             <dbl>
##  1 2012-10-01       10766.
##  2 2012-10-02         126 
##  3 2012-10-03       11352 
##  4 2012-10-04       12116 
##  5 2012-10-05       13294 
##  6 2012-10-06       15420 
##  7 2012-10-07       11015 
##  8 2012-10-08       10766.
##  9 2012-10-09       12811 
## 10 2012-10-10        9900 
## # … with 51 more rows
```
…
